{
  "keyMappings": "unmap p\nunmap P\nunmap gi\nunmap gf\nunmap gF\nunmap t\nunmap gt\nunmap gT\nunmap g0\nunmap g$\nunmap ^\nunmap yt\nunmap <a-p>\nunmap <a-m>\nunmap <c-e>\nunmap <c-y>\nunmap n\nunmap N\nmap i focusInput\nmap n performFind\nmap p performBackwardsFind",
  "linkHintCharacters": "sdfwerxcvgt",
  "smoothScroll": false,
  "grabBackFocus": true,
  "searchEngines": "#w: https://www.wikipedia.org/w/index.php?title=Special:Search&search=%s Wikipedia\nb: https://search.bilibili.com/all?keyword=%s Bilibili\n\n# More examples.\n#\n# (Vimium supports search completion Wikipedia, as\n# above, and for these.)\n#\n# g: https://www.google.com/search?q=%s Google\n# l: https://www.google.com/search?q=%s&btnI I'm feeling lucky...\n# y: https://www.youtube.com/results?search_query=%s Youtube\n# gm: https://www.google.com/maps?q=%s Google maps\n# b: https://www.bing.com/search?q=%s Bing\n# d: https://duckduckgo.com/?q=%s DuckDuckGo\n# az: https://www.amazon.com/s/?field-keywords=%s Amazon\n# qw: https://www.qwant.com/?q=%s Qwant",
  "searchUrl": "https://cn.bing.com/search?q=",
  "settingsVersion": "2.1.2",
  "exclusionRules": [
    {
      "passKeys": "1234567890",
      "pattern": ".*"
    }
  ]
}
